{
    "org_id": "vuiqco",
    "domain": "internetofthings.ibmcloud.com",
    "device_type": "IoTDevice",
    "device_id": "IoTDevice2",
    "dev_auth_token": "!17+tW5V4OEJ)s0R30",
    "qos": 0,
    "disconnect_after": 20,
    "throttleInterval": 1000
}